<?xml version="1.0" encoding="utf-8"?>
<!-- Generator: Adobe Illustrator 22.1.0, SVG Export Plug-In . SVG Version: 6.00 Build 0)  -->
<svg version="1.1" id="Capa_1" xmlns="http://www.w3.org/2000/svg" xmlns:xlink="http://www.w3.org/1999/xlink" x="0px" y="0px"
	 viewBox="0 0 512 512" style="enable-background:new 0 0 512 512;" xml:space="preserve">
<style type="text/css">
	.st0{fill:#004FA3;}
</style>
<g>
	<path class="st0" d="M79.5,255.4c0-7.8,3-14.6,8.9-20.5L309.9,34.8c15.5-13.1,30.4-13.1,44.7,0c7.1,5.9,10.7,13.1,10.7,21.4v398.3
		c0,8.3-3,15.5-8.9,21.4h-1.8c-14.3,13.1-29.2,13.1-44.7,0L90.2,276h-1.8C82.5,270,79.5,263.2,79.5,255.4z"/>
</g>
</svg>
