<?xml version="1.0" encoding="utf-8"?>
<!-- Generator: Adobe Illustrator 22.1.0, SVG Export Plug-In . SVG Version: 6.00 Build 0)  -->
<svg version="1.1" id="Layer_1" xmlns="http://www.w3.org/2000/svg" xmlns:xlink="http://www.w3.org/1999/xlink" x="0px" y="0px"
	 viewBox="0 0 512 512" style="enable-background:new 0 0 512 512;" xml:space="preserve">
<style type="text/css">
	.st0{fill:#004FA3;}
	.st1{fill:#FFFFFF;}
</style>
<ellipse class="st0" cx="255.5" cy="256.5" rx="255.4" ry="253.3"/>
<g>
	<g>
		
			<rect x="161" y="328.1" transform="matrix(0.7071 -0.7071 0.7071 0.7071 -202.6546 221.8936)" class="st1" width="11.1" height="54.9"/>
	</g>
</g>
<g>
	<g>
		<path class="st1" d="M202.6,286.2c-18.4,0-33.3,14.9-33.3,33.3c0,18.4,14.9,33.3,33.3,33.3s33.3-14.9,33.3-33.3
			C235.8,301.1,220.9,286.2,202.6,286.2z M202.6,341.7c-12.2,0-22.2-9.9-22.2-22.2c0-12.3,9.9-22.2,22.2-22.2
			c12.3,0,22.2,9.9,22.2,22.2C224.7,331.8,214.8,341.7,202.6,341.7z"/>
	</g>
</g>
<g>
	<g>
		<path class="st1" d="M439.4,127.1L395,82.7c-2.1-2.1-5.7-2.1-7.8,0l-12.8,12.8l-12.7-12.8l-7.8,7.8l12.7,12.7l-19.9,20L334,110.5
			l-7.8,7.8l12.7,12.7l-12.7,12.7c-2.1,2.1-2.1,5.7,0,7.8l7.1,7.1l-60,60.1c-8-4-16.8-6.4-25.9-6.9c-0.2,0-0.4,0-0.6,0L135.6,90.3
			c-5.3-5.8-12.6-9.1-20.5-9.2c-7.9-0.2-15.3,2.8-20.8,8.5c-11,11.1-10.9,29.1,0.1,40.1l101.8,101.8c-3.5,3.6-6.7,7.6-9.3,11.9
			c-9.2,15-22.3,25.1-36.7,28.4c-17.6,4.1-33.1,13.7-44.9,27.6c-26.6,31.6-25.7,78.6,2,109.2c15.5,17.1,36.7,26.8,59.6,27.4
			c0.7,0,1.5,0,2.1,0c22.2,0,43-8.6,58.7-24.3c10.9-10.9,18.5-24.5,22-39.4c3.6-15.3,13.4-28.5,26.8-36.1c5-2.8,9.5-6.4,13.6-10.4
			l71.3,71.3c-4.2,11.4-2.9,22.3,3.9,29c4.2,4.2,9.9,6.4,16.5,6.4c2.1,0,4.3-0.2,6.5-0.7c8.5-1.7,17-6.5,24.1-13.6
			c15.4-15.4,18.9-36.1,7.8-47.1c-6.6-6.6-17.1-8-28.2-4.2l-82.1-86.2c0.3-10.9-1.9-21.8-6.9-31.8l60.1-60.1l7.1,7.1
			c0.5,0.5,1.1,0.9,1.8,1.2c0.6,0.3,1.1,0.5,1.7,0.5c2.1,0,5.2-2.6,17.1-14.4l12.6,12.6l7.8-7.8L399,175.3c2.9-3,6.2-6.2,10-10
			c3.3-3.4,6.7-6.7,9.9-9.9l12.7,12.7l7.8-7.8l-12.7-12.7c7.4-7.5,12.7-12.8,12.7-12.8C441.5,132.7,441.5,129.2,439.4,127.1z
			 M102.3,121.9c-6.7-6.7-6.8-17.7-0.1-24.5c3.4-3.4,7.8-5.3,12.7-5.2c4.8,0.1,9.2,2.1,12.5,5.6l105.1,114.9
			c-10,1.7-19.5,5.7-27.7,11.6L102.3,121.9z M289.4,309.7c-4.9,6.9-11,12.5-18.1,16.6c-16,9.2-27.7,24.9-32,43.2
			c-3.1,12.9-9.7,24.8-19.1,34.2c-14.1,14.1-32.8,21.6-52.8,21.1c-19.9-0.5-38.3-8.9-51.7-23.8c-24.1-26.6-24.8-67.3-1.8-94.6
			c10.2-12.1,23.6-20.4,38.9-23.9c17.4-4,32.9-15.9,43.7-33.4c2.2-3.7,4.9-7,8-10.1c10.4-10.4,24.5-16.2,39.2-16.2
			c1,0,2.1,0,3.1,0.1c15.9,0.9,30.3,8.3,40.4,20.9c9.3,11.6,13.2,26.2,11.6,40.4l-0.3,0.3l0.2,0.3
			C297.7,293.6,294.6,302.2,289.4,309.7z M308.1,294.6l78.6,82.6c1.7,1.7,4.2,2.2,6.3,1.2c8.1-3.7,15.5-3.5,19.6,0.4
			c6.4,6.4,2.8,20.7-7.8,31.3c-5.5,5.5-12.1,9.2-18.4,10.5c-3.2,0.6-9.2,1.1-13-2.7c-4.1-4.1-4.1-11.7-0.1-20c1-2.1,0.6-4.6-1.1-6.3
			l-74.5-74.5c0.3-0.3,0.6-0.7,0.8-1C303,309.5,306.3,302.2,308.1,294.6z M297.3,239c-0.5-0.7-1-1.4-1.5-2.1
			c-3.7-4.7-8.1-8.7-12.8-12.2l58.2-58.2l14.4,14.4L297.3,239z M374.5,184.2l-7.2-7.2l-22.2-22.2l-7.1-7.1l53.1-53.2l36.5,36.5
			C408.6,150.1,383.8,175,374.5,184.2z"/>
	</g>
</g>
<g>
	<g>
		<g>
			
				<rect x="355.5" y="136.6" transform="matrix(0.7071 -0.7071 0.7071 0.7071 5.94 298.5508)" class="st1" width="15.7" height="11.1"/>
			
				<rect x="377.7" y="114.4" transform="matrix(0.7071 -0.7071 0.7071 0.7071 28.1284 307.7349)" class="st1" width="15.7" height="11.1"/>
			
				<rect x="394.3" y="131" transform="matrix(0.7071 -0.7071 0.7071 0.7071 21.2355 324.371)" class="st1" width="15.7" height="11.1"/>
			
				<rect x="372.2" y="153.2" transform="matrix(0.7071 -0.7071 0.7071 0.7071 -0.9508 315.1902)" class="st1" width="15.7" height="11.1"/>
		</g>
	</g>
</g>
</svg>
