<?xml version="1.0" encoding="utf-8"?>
<!-- Generator: Adobe Illustrator 22.1.0, SVG Export Plug-In . SVG Version: 6.00 Build 0)  -->
<svg version="1.1" id="Capa_1" xmlns="http://www.w3.org/2000/svg" xmlns:xlink="http://www.w3.org/1999/xlink" x="0px" y="0px"
	 viewBox="0 0 500 500" style="enable-background:new 0 0 500 500;" xml:space="preserve">
<style type="text/css">
	.st0{fill:#FFFFFF;stroke:#FFFFFF;stroke-width:8.5039;stroke-miterlimit:10;}
</style>
<g>
	<path class="st0" d="M471.7,207.7c0,49.5-17.6,91.7-52.6,126.8c-35.1,35.1-77.4,52.6-126.8,52.6c-42,0-79.7-13.2-113-39.7
		L61.1,465.7c-3.5,4-7.9,6-13.4,6c-5.5,0-10.1-1.9-13.8-5.6c-3.7-3.7-5.6-8.3-5.6-13.8c0-5.5,2-9.9,6-13.4l118.2-118.2
		c-26.5-33.3-39.7-71-39.7-113c0-49.5,17.5-91.7,52.6-126.8c35.1-35.1,77.3-52.6,126.8-52.6c49.5,0,91.7,17.6,126.8,52.6
		C454.2,116,471.7,158.3,471.7,207.7z M444.1,207.7c0-42-14.8-77.8-44.4-107.4c-29.6-29.6-65.4-44.4-107.4-44.4
		c-42,0-77.8,14.8-107.4,44.4c-29.6,29.6-44.4,65.4-44.4,107.4c0,42,14.8,77.8,44.4,107.4c29.6,29.6,65.4,44.4,107.4,44.4
		c42,0,77.8-14.8,107.4-44.4C429.3,285.5,444.1,249.7,444.1,207.7z"/>
</g>
</svg>
