<?xml version="1.0" encoding="utf-8"?>
<!-- Generator: Adobe Illustrator 22.1.0, SVG Export Plug-In . SVG Version: 6.00 Build 0)  -->
<svg version="1.1" id="Capa_1" xmlns="http://www.w3.org/2000/svg" xmlns:xlink="http://www.w3.org/1999/xlink" x="0px" y="0px"
	 viewBox="0 0 512 512" style="enable-background:new 0 0 512 512;" xml:space="preserve">
<style type="text/css">
	.st0{fill:#094CA9;}
</style>
<g>
	<path class="st0" d="M354.4,173.4c-60.2,0-81.6,39.1-81.6,72.6v117.2c0,33.5,21.4,72.6,81.6,72.6s81.6-39.1,81.6-72.6V245.9
		C436,212.5,414.6,173.4,354.4,173.4z M424.5,363.2c0,7-1.3,25-13.9,39.7c-12.1,14.2-31,21.4-56.2,21.4c-25.2,0-44.1-7.2-56.2-21.4
		c-12.5-14.7-13.9-32.7-13.9-39.7V246c0-7,1.3-25,13.9-39.7c12.1-14.2,31-21.4,56.2-21.4c25.2,0,44.1,7.2,56.2,21.4
		c12.5,14.7,13.9,32.7,13.9,39.7V363.2z"/>
	<path class="st0" d="M305.1,87.7c24,0,43.7,19.5,43.7,43.7v24.8c0,3.2,2.6,5.8,5.8,5.8s5.8-2.6,5.8-5.8v-24.9
		c0-30.4-24.8-55.1-55.1-55.1c-30.4,0-55.1,24.6-55.1,54.8v152.8c0,23.9-19.5,43.3-43.7,43.3s-43.7-19.5-43.7-43.7v-45.6
		c42-3,75.2-38,75.2-80.7c0-44.6-36.3-80.9-80.9-80.9s-81,36.4-81,81c0,42.7,33.3,77.8,75.2,80.7v45.6c0,30.4,24.8,55.1,55.1,55.1
		s55.1-24.6,55.1-54.8V131C261.4,107.1,281,87.7,305.1,87.7z M87.5,157.1c0-38.3,31.1-69.5,69.5-69.5s69.5,31.1,69.5,69.5
		s-31.1,69.5-69.5,69.5S87.5,195.5,87.5,157.1z"/>
	<path class="st0" d="M156.9,173.6c-2.4,0-4.3-2-4.3-4.3c0-3.2-2.6-5.8-5.8-5.8s-5.8,2.6-5.8,5.8c0,6.7,4.1,12.4,10.1,14.7v2.5
		c0,3.2,2.6,5.8,5.8,5.8s5.8-2.6,5.8-5.8V184c5.9-2.3,10.1-8,10.1-14.7c0-11-9-15.3-13.4-17.3c-5.3-2.5-6.8-4-6.8-7
		c0-2.4,2-4.3,4.3-4.3c2.4,0,4.3,2,4.3,4.3c0,3.2,2.6,5.8,5.8,5.8s5.8-2.6,5.8-5.8c0-6.7-4.1-12.4-10.1-14.7v-2.5
		c0-3.2-2.6-5.8-5.8-5.8s-5.8,2.6-5.8,5.8v2.5c-5.9,2.3-10.1,8-10.1,14.7c0,11,9,15.3,13.4,17.3c5.3,2.5,6.8,4,6.8,7
		C161.2,171.6,159.3,173.6,156.9,173.6L156.9,173.6z"/>
	<path class="st0" d="M214.9,157.1c0-32-26-58-58-58c-13.2,0-26.2,4.6-36.4,12.9c-10.1,8.2-17.3,19.7-20.1,32.3
		c-0.7,3.1,1.3,6.2,4.4,6.9c3.1,0.7,6.2-1.3,6.9-4.4c4.7-21,23.8-36.3,45.4-36.3c25.7,0,46.5,20.9,46.5,46.5s-20.9,46.5-46.5,46.5
		c-21.6,0-40.6-15.3-45.4-36.3c-0.7-3.1-3.8-5.1-6.9-4.4s-5.1,3.8-4.4,6.9c2.8,12.7,10,24.1,20.1,32.3c10.3,8.4,23.2,12.9,36.4,12.9
		C188.9,215.1,214.9,189.1,214.9,157.1z"/>
	<path class="st0" d="M360.2,298.8v-20c8.5-2.5,14.8-10.4,14.8-19.7V232c0-9.4-6.3-17.2-14.8-19.7v-10.2c0-3.2-2.6-5.8-5.8-5.8
		s-5.8,2.6-5.8,5.8v10.2c-8.5,2.5-14.8,10.4-14.8,19.7v27.2c0,9.4,6.3,17.2,14.8,19.7v20h-47.1c-3.2,0-5.8,2.6-5.8,5.8
		s2.6,5.8,5.8,5.8h105.7c3.2,0,5.8-2.6,5.8-5.8s-2.6-5.8-5.8-5.8H360.2L360.2,298.8z M345.4,259.2V232c0-5,4.1-9.1,9.1-9.1
		s9.1,4.1,9.1,9.1v27.2c0,5-4.1,9.1-9.1,9.1C349.4,268.2,345.4,264.2,345.4,259.2z"/>
</g>
</svg>
