<?xml version="1.0" encoding="utf-8"?>
<!-- Generator: Adobe Illustrator 22.1.0, SVG Export Plug-In . SVG Version: 6.00 Build 0)  -->
<svg version="1.1" xmlns="http://www.w3.org/2000/svg" xmlns:xlink="http://www.w3.org/1999/xlink" x="0px" y="0px"
	 viewBox="0 0 512 512" style="enable-background:new 0 0 512 512;" xml:space="preserve">
<style type="text/css">
	.st0{display:none;}
	.st1{display:inline;fill:#004FA3;}
	.st2{display:inline;}
	.st3{fill:#FFFFFF;}
	.st4{fill:#004FA3;}
</style>
<g id="Capa_1" class="st0">
	<circle class="st1" cx="256" cy="256" r="253.3"/>
	<g class="st2">
		<g>
			<g>
				<path class="st3" d="M326.6,138.7c-22.2,0-40.2,18-40.2,40.2c0,11.4,4.8,21.7,12.5,29.1c0.2,0.2,0.4,0.4,0.6,0.6
					c7.1,6.5,16.6,10.5,27,10.5c10.4,0,19.9-4,27-10.5c0.2-0.2,0.4-0.4,0.6-0.6c7.7-7.3,12.5-17.6,12.5-29.1
					C366.8,156.7,348.7,138.7,326.6,138.7z M326.6,208.2c-6.3,0-12.1-2-16.8-5.3c3.6-5.7,9.9-9.2,16.8-9.2c7,0,13.2,3.5,16.8,9.2
					C338.7,206.2,332.8,208.2,326.6,208.2z M321,177.2v-2.8c0-3.1,2.5-5.6,5.6-5.6s5.6,2.5,5.6,5.6v2.8c0,3.1-2.5,5.6-5.6,5.6
					S321,180.3,321,177.2z M351.1,194.9c-2.9-3.8-6.5-6.8-10.7-8.9c1.6-2.6,2.6-5.6,2.6-8.8v-2.8c0-9.1-7.4-16.4-16.4-16.4
					c-9.1,0-16.4,7.4-16.4,16.4v2.8c0,3.3,1,6.3,2.6,8.8c-4.2,2.1-7.8,5.1-10.7,8.9c-3-4.6-4.8-10.1-4.8-16
					c0-16.2,13.2-29.3,29.3-29.3c16.2,0,29.3,13.2,29.3,29.3C355.9,184.8,354.1,190.3,351.1,194.9z"/>
			</g>
		</g>
		<g>
			<g>
				<path class="st3" d="M389.2,327.4c-7.2-7.2-18.4-8.2-26.8-2.4c-0.1,0-0.1,0.1-0.2,0.1L331.8,348c-2.4,1.8-2.9,5.2-1.1,7.6
					c1.8,2.4,5.2,2.9,7.6,1.1l30.3-22.8c4-2.7,9.4-2.2,12.8,1.2c1.8,1.8,2.7,4.2,2.6,6.8c-0.1,2.6-1.3,4.9-3.3,6.5l-27.8,22.5
					c-10.6,8.6-24,13.3-37.6,13.3h-80.4c-10.9,0-21.6-3-30.9-8.6l-21.9-13.2v-68.7h41.9c5.8,0,11.3,2.3,15.3,6.4l28.9,29
					c4.1,4.1,9.6,6.4,15.4,6.4h21.3c4.5,0,8.1,3.6,8.1,8.1c0,4.5-3.6,8.1-8.1,8.1h-40.9c-3.8,0-7.4-1.1-10.5-3.1l-17.4-11.3l-0.1,0
					c-2.5-1.6-5.9-0.9-7.5,1.6c-1.6,2.5-0.9,5.9,1.6,7.5l17.5,11.4c4.9,3.2,10.6,4.9,16.5,4.9h40.9c10.5,0,19-8.5,19-19
					s-8.5-19-19-19h-21l45.1-26.1h54.9c6,0,10.9-4.9,10.9-10.9V127.9c0-6-4.9-10.9-10.9-10.9H269c-6,0-10.9,4.9-10.9,10.9v159.6
					c0,6,4.9,10.9,10.9,10.9h38.5l-34.4,19.9c0,0,0,0,0,0l-25.9-26c-6.2-6.2-14.3-9.5-23-9.5h-41.9v-9.6c0-6-4.9-10.9-10.9-10.9h-49
					c-3,0-5.4,2.4-5.4,5.4v121.9c0,3,2.4,5.4,5.4,5.4h49c6,0,10.9-4.9,10.9-10.9V375l16.2,9.8c11,6.7,23.7,10.2,36.6,10.2h80.4
					c16.1,0,31.9-5.6,44.4-15.7l27.8-22.5c4.3-3.5,7-8.7,7.3-14.3C395.3,336.8,393.2,331.4,389.2,327.4z M269,287.5V127.9h115.1
					l0,159.6c0,0,0,0,0,0H269z M171.4,384.1h-43.6v-111h43.6l0,15c0,0,0,0,0,0c0,0,0,0,0,0l0,76.9c0,0.1,0,0.3,0,0.4L171.4,384.1
					C171.4,384.1,171.4,384.1,171.4,384.1z"/>
			</g>
		</g>
		<g>
			<g>
				<path class="st3" d="M244.1,144.3c-1.5-2.6-4.8-3.5-7.4-2l-48.9,28.2c-5.2,3-7,9.6-4,14.8l47.4,82.2c1,1.7,2.8,2.7,4.7,2.7
					c0.9,0,1.9-0.2,2.7-0.7c2.6-1.5,3.5-4.8,2-7.4L193.3,180l48.9-28.2C244.8,150.3,245.6,146.9,244.1,144.3z"/>
			</g>
		</g>
		<g>
			<g>
				<path class="st3" d="M360.2,232.1h-63c-3,0-5.4,2.4-5.4,5.4c0,3,2.4,5.4,5.4,5.4h63c3,0,5.4-2.4,5.4-5.4
					C365.7,234.5,363.2,232.1,360.2,232.1z"/>
			</g>
		</g>
		<g>
			<g>
				<path class="st3" d="M364.1,257.6c-1-1-2.4-1.6-3.8-1.6s-2.8,0.6-3.8,1.6c-1,1-1.6,2.4-1.6,3.8c0,1.4,0.6,2.8,1.6,3.8
					c1,1,2.4,1.6,3.8,1.6s2.8-0.6,3.8-1.6c1-1,1.6-2.4,1.6-3.8C365.7,260,365.1,258.6,364.1,257.6z"/>
			</g>
		</g>
		<g>
			<g>
				<path class="st3" d="M337.6,256h-40.3c-3,0-5.4,2.4-5.4,5.4c0,3,2.4,5.4,5.4,5.4h40.3c3,0,5.4-2.4,5.4-5.4
					C343,258.4,340.6,256,337.6,256z"/>
			</g>
		</g>
		<g>
			<g>
				<path class="st3" d="M149.6,317.1c-3,0-5.4,2.4-5.4,5.4v21.2c0,3,2.4,5.4,5.4,5.4c3,0,5.4-2.4,5.4-5.4v-21.2
					C155.1,319.5,152.6,317.1,149.6,317.1z"/>
			</g>
		</g>
		<g>
			<g>
				<path class="st3" d="M153.5,358.6c-1-1-2.4-1.6-3.8-1.6c-1.4,0-2.8,0.6-3.8,1.6c-1,1-1.6,2.4-1.6,3.8c0,1.4,0.6,2.8,1.6,3.8
					c1,1,2.4,1.6,3.8,1.6c1.4,0,2.8-0.6,3.8-1.6c1-1,1.6-2.4,1.6-3.8C155.1,361,154.5,359.6,153.5,358.6z"/>
			</g>
		</g>
	</g>
</g>
<g id="Capa_1_copia">
	<circle class="st4" cx="256" cy="256" r="253.3"/>
</g>
<g id="Capa_2" class="st0">
	<g class="st2">
		<g>
			<g>
				<path class="st3" d="M366.7,100.2H145.3c-10.1,0-18.3,8.2-18.3,18.3v275c0,10.1,8.2,18.3,18.3,18.3h221.5
					c10.1,0,18.3-8.2,18.3-18.3v-275C385,108.4,376.8,100.2,366.7,100.2z M329.6,121.8l33.9,33.9h-27.8c-3.4,0-6.1-2.7-6.1-6.1
					V121.8z M372.8,393.5c0,3.4-2.7,6.1-6.1,6.1H145.3c-3.4,0-6.1-2.7-6.1-6.1v-275c0-3.4,2.7-6.1,6.1-6.1h172.2v37.2
					c0,10.1,8.2,18.3,18.3,18.3h37.1V393.5z M372.8,147.8l-35.4-35.4h29.3c3.4,0,6.1,2.7,6.1,6.1V147.8z"/>
			</g>
		</g>
		<g>
			<g>
				<path class="st3" d="M348.3,214.6h-67.8c-3.4,0-6.1,2.7-6.1,6.1s2.7,6.1,6.1,6.1h67.8c3.4,0,6.1-2.7,6.1-6.1
					S351.7,214.6,348.3,214.6z"/>
			</g>
		</g>
		<g>
			<g>
				<path class="st3" d="M284.8,187.2c-1.1-1.1-2.7-1.8-4.3-1.8c-1.6,0-3.2,0.7-4.3,1.8s-1.8,2.7-1.8,4.3s0.7,3.2,1.8,4.3
					c1.1,1.1,2.7,1.8,4.3,1.8c1.6,0,3.2-0.7,4.3-1.8c1.1-1.1,1.8-2.7,1.8-4.3S285.9,188.3,284.8,187.2z"/>
			</g>
		</g>
		<g>
			<g>
				<path class="st3" d="M348.3,185.4h-43.5c-3.4,0-6.1,2.7-6.1,6.1s2.7,6.1,6.1,6.1h43.5c3.4,0,6.1-2.7,6.1-6.1
					S351.7,185.4,348.3,185.4z"/>
			</g>
		</g>
		<g>
			<g>
				<path class="st3" d="M348.3,243.8h-65.9c-3.4,0-6.1,2.7-6.1,6.1c0,3.4,2.7,6.1,6.1,6.1h65.9c3.4,0,6.1-2.7,6.1-6.1
					C354.4,246.6,351.7,243.8,348.3,243.8z"/>
			</g>
		</g>
		<g>
			<g>
				<path class="st3" d="M349.9,273H163.7c-3.4,0-6.1,2.7-6.1,6.1c0,3.4,2.7,6.1,6.1,6.1h186.2c3.4,0,6.1-2.7,6.1-6.1
					C356,275.8,353.2,273,349.9,273z"/>
			</g>
		</g>
		<g>
			<g>
				<path class="st3" d="M348.3,302.2H163.7c-3.4,0-6.1,2.7-6.1,6.1c0,3.4,2.7,6.1,6.1,6.1h184.6c3.4,0,6.1-2.7,6.1-6.1
					C354.4,305,351.7,302.2,348.3,302.2z"/>
			</g>
		</g>
		<g>
			<g>
				<path class="st3" d="M349.9,331.5H163.7c-3.4,0-6.1,2.7-6.1,6.1c0,3.4,2.7,6.1,6.1,6.1h186.2c3.4,0,6.1-2.7,6.1-6.1
					C356,334.2,353.2,331.5,349.9,331.5z"/>
			</g>
		</g>
		<g>
			<g>
				<path class="st3" d="M354.2,362.4c-1.1-1.1-2.7-1.8-4.3-1.8c-1.6,0-3.2,0.7-4.3,1.8c-1.1,1.1-1.8,2.7-1.8,4.3
					c0,1.6,0.7,3.2,1.8,4.3c1.1,1.1,2.7,1.8,4.3,1.8c1.6,0,3.2-0.7,4.3-1.8c1.1-1.1,1.8-2.7,1.8-4.3
					C356,365.1,355.3,363.6,354.2,362.4z"/>
			</g>
		</g>
		<g>
			<g>
				<path class="st3" d="M325.4,360.7H163.7c-3.4,0-6.1,2.7-6.1,6.1c0,3.4,2.7,6.1,6.1,6.1h161.7c3.4,0,6.1-2.7,6.1-6.1
					C331.5,363.4,328.7,360.7,325.4,360.7z"/>
			</g>
		</g>
		<g>
			<g>
				<path class="st3" d="M251.2,139.2h-89.1c-3.4,0-6.1,2.7-6.1,6.1L156,249.9c0,3.4,2.7,6.1,6.1,6.1h89.2c3.4,0,6.1-2.7,6.1-6.1
					V145.3C257.3,141.9,254.6,139.2,251.2,139.2z M245.2,243.8h-77l0.1-7.7c1-13.3,12.1-23.9,25.7-23.9h25.4
					c14.2,0,25.8,11.6,25.8,25.8V243.8z M196.9,190.3v-4c0-5.4,4.4-9.7,9.7-9.7c5.4,0,9.7,4.4,9.7,9.7v4c0,5.4-4.4,9.7-9.7,9.7
					C201.3,200,196.9,195.7,196.9,190.3z M245.2,210.2c-5.2-4.9-11.9-8.3-19.2-9.6c1.7-3.1,2.6-6.6,2.6-10.3v-4
					c0-12.1-9.8-21.9-21.9-21.9c-12.1,0-21.9,9.8-21.9,21.9v4c0,3.7,0.9,7.2,2.6,10.3c-7.3,1.3-13.9,4.7-19.1,9.5v-58.8h76.9V210.2z
					"/>
			</g>
		</g>
	</g>
</g>
<g id="Capa_4">
	<g>
		<g>
			<g>
				<path class="st3" d="M377.7,338c-1.1-1.1-2.7-1.8-4.3-1.8c-1.6,0-3.1,0.6-4.3,1.8c-1.1,1.1-1.8,2.7-1.8,4.3
					c0,1.6,0.6,3.1,1.8,4.3c1.1,1.1,2.7,1.8,4.3,1.8c1.6,0,3.1-0.6,4.3-1.8s1.8-2.7,1.8-4.3C379.5,340.7,378.9,339.1,377.7,338z"/>
			</g>
		</g>
		<g>
			<g>
				<path class="st3" d="M405.9,366.2l-12.7-12.7c-2.3-2.3-6.2-2.3-8.5,0c-2.3,2.3-2.3,6.2,0,8.5l12.7,12.7c1,1,1.5,2.3,1.5,3.7
					c0,1.4-0.5,2.7-1.5,3.7L382,397.5c-2,2-5.3,2-7.3,0l-55.6-55.6l22.8-22.8l11.7,11.7c2.3,2.3,6.2,2.3,8.5,0
					c2.3-2.3,2.3-6.2,0-8.5l-15.9-15.9c-2.3-2.3-6.2-2.3-8.5,0l-2.6,2.6l-16.6-16.6c14.4-19.7,23-44,23-70.2
					c0-65.7-53.4-119.1-119.1-119.1S103,156.4,103,222.1s53.4,119.1,119.1,119.1c26.2,0,50.5-8.5,70.2-22.9l16.6,16.6l-2.6,2.6
					c-2.3,2.3-2.3,6.2,0,8.5l59.9,59.9c3.4,3.4,7.8,5,12.2,5c4.4,0,8.8-1.7,12.2-5l15.4-15.4c3.3-3.3,5-7.6,5-12.2
					C411,373.8,409.2,369.4,405.9,366.2z M222.1,329.2c-59,0-107.1-48-107.1-107.1S163.1,115,222.1,115s107.1,48,107.1,107.1
					S281.2,329.2,222.1,329.2z M301.7,310.7c3.1-2.8,6.1-5.8,9-9l15.8,15.8l-9,9L301.7,310.7z"/>
			</g>
		</g>
		<g>
			<g>
				<path class="st3" d="M222.4,133.1l-0.3,0c-3.3,0-6,2.7-6,6s2.7,6,6,6l0.3,0c0,0,0,0,0,0c3.3,0,6-2.7,6-6
					C228.5,135.8,225.8,133.1,222.4,133.1z"/>
			</g>
		</g>
		<g>
			<g>
				<path class="st3" d="M292.8,168.1c-11.6-15.1-28-26.3-46.2-31.5c-3.2-0.9-6.5,0.9-7.4,4.1s0.9,6.5,4.1,7.4
					c32.8,9.4,55.8,39.8,55.8,74c0,20.9-8.4,39.9-22,53.8c0.2-0.6,0.4-1.3,0.4-2.1v-12.9c0-19.5-14.3-35.7-32.9-38.7
					c3.3-4.6,5.3-10.2,5.3-16.2v-36.1c0-3.3-2.7-6-6-6h-26.9c-12.4,0-22.5,10.1-22.5,22.5V206c0,6,2,11.6,5.3,16.2
					c-18.6,3-32.9,19.2-32.9,38.7v12.9c0,0.7,0.1,1.4,0.4,2.1c-13.6-13.9-22-32.9-22-53.8c0-33.9,21.7-63.4,54.1-73.5
					c3.2-1,4.9-4.4,4-7.5c-1-3.2-4.4-4.9-7.5-4c-17.7,5.5-33.7,16.8-44.9,31.7c-11.6,15.5-17.7,33.9-17.7,53.3c0,49.1,39.9,89,89,89
					s89-39.9,89-89C311.1,202.4,304.8,183.7,292.8,168.1z M222.1,221.7c-8.7,0-15.7-7-15.7-15.7v-4.3h24.9c2.3,0,4.5-0.4,6.5-1.2
					v5.4C237.8,214.7,230.8,221.7,222.1,221.7z M231.7,233.7l-9.6,9.6l-9.6-9.6H231.7z M206.4,186.4L206.4,186.4
					c0-5.8,4.7-10.5,10.5-10.5h20.9v7.3c0,3.6-2.9,6.5-6.5,6.5h-24.9V186.4z M178.8,260.9L178.8,260.9c0-11.9,7.6-22,18.3-25.7
					l20.8,20.8c1.2,1.2,2.7,1.8,4.3,1.8s3.1-0.6,4.3-1.8l20.8-20.8c10.6,3.7,18.3,13.8,18.3,25.7v6.9h-86.6V260.9z M222.1,299.1
					c-19.6,0-37.5-7.4-51.1-19.5c0.6,0.2,1.2,0.3,1.8,0.3h98.7c0.6,0,1.2-0.1,1.8-0.3C259.6,291.7,241.7,299.1,222.1,299.1z"/>
			</g>
		</g>
	</g>
</g>
<g id="Capa_6" class="st0">
	<g class="st2">
		<g>
			<g>
				<path class="st3" d="M380.2,113H181.4c-9.2,0-16.8,7.5-16.8,16.8v19c0,3.1,2.5,5.6,5.6,5.6s5.6-2.5,5.6-5.6v-19
					c0-3.1,2.5-5.6,5.6-5.6h198.9c3.1,0,5.6,2.5,5.6,5.6v252.5c0,3.1-2.5,5.6-5.6,5.6H181.4c-3.1,0-5.6-2.5-5.6-5.6v-18
					c0-3.1-2.5-5.6-5.6-5.6s-5.6,2.5-5.6,5.6v18c0,9.2,7.5,16.8,16.8,16.8h198.9c9.2,0,16.8-7.5,16.8-16.8V129.8
					C397,120.5,389.5,113,380.2,113z"/>
			</g>
		</g>
		<g>
			<g>
				<path class="st3" d="M353.4,328.6H219.3c-3.1,0-5.6,2.5-5.6,5.6s2.5,5.6,5.6,5.6h134.1c3.1,0,5.6-2.5,5.6-5.6
					S356.4,328.6,353.4,328.6z"/>
			</g>
		</g>
		<g>
			<g>
				<path class="st3" d="M357.3,359.3c-1.1-1.1-2.5-1.6-4-1.6c-1.5,0-2.9,0.6-4,1.6c-1.1,1.1-1.6,2.5-1.6,4s0.6,2.9,1.6,4
					c1.1,1.1,2.5,1.6,4,1.6c1.5,0,2.9-0.6,4-1.6c1.1-1.1,1.6-2.5,1.6-4S358.3,360.3,357.3,359.3z"/>
			</g>
		</g>
		<g>
			<g>
				<path class="st3" d="M330.5,357.7H219.3c-3.1,0-5.6,2.5-5.6,5.6s2.5,5.6,5.6,5.6h111.2c3.1,0,5.6-2.5,5.6-5.6
					S333.6,357.7,330.5,357.7z"/>
			</g>
		</g>
		<g>
			<g>
				<path class="st3" d="M258.5,162c-33.2,0-60.3,27-60.3,60.3c0,17.3,7.3,32.8,18.9,43.8c0.2,0.2,0.4,0.4,0.7,0.6
					c10.7,9.8,25,15.9,40.7,15.9c15.7,0,29.9-6,40.7-15.9c0.2-0.2,0.4-0.4,0.7-0.6c11.7-11,18.9-26.6,18.9-43.8
					C318.7,189.1,291.7,162,258.5,162z M258.5,271.4c-11.5,0-22.1-4-30.4-10.6c5.9-11.2,17.5-18.3,30.4-18.3s24.5,7,30.4,18.3
					C280.5,267.5,269.9,271.4,258.5,271.4z M246.7,219.6v-4.4c0-6.5,5.3-11.7,11.7-11.7c6.5,0,11.7,5.3,11.7,11.7v4.4
					c0,6.5-5.3,11.7-11.7,11.7C251.9,231.4,246.7,226.1,246.7,219.6z M297,252.6c-5.1-8.2-12.6-14.4-21.3-17.9
					c3.5-4,5.7-9.3,5.7-15.1v-4.4c0-12.6-10.3-22.9-22.9-22.9c-12.6,0-22.9,10.3-22.9,22.9v4.4c0,5.8,2.2,11.1,5.7,15.1
					c-8.8,3.6-16.3,9.8-21.3,17.9c-6.6-8.4-10.6-18.9-10.6-30.3c0-27.1,22-49.1,49.1-49.1s49.1,22,49.1,49.1
					C307.6,233.8,303.6,244.3,297,252.6z"/>
			</g>
		</g>
		<g>
			<g>
				<path class="st3" d="M258.5,135.3c-47.9,0-87,39-87,87c0,27.7,13,52.5,33.3,68.4L140,355.5c-4.1,4.1-10.7,4.1-14.7,0
					c-2-2-3.1-4.6-3.1-7.4s1.1-5.4,3.1-7.4l33.2-33.2c2.2-2.2,2.2-5.7,0-7.9c-2.2-2.2-5.7-2.2-7.9,0l-33.2,33.2
					c-4.1,4.1-6.4,9.5-6.4,15.2s2.2,11.2,6.3,15.2c4.2,4.2,9.7,6.3,15.2,6.3c5.5,0,11.1-2.1,15.2-6.3l66.3-66.3
					c13,7.7,28.1,12.1,44.3,12.1c47.9,0,87-39,87-87S306.4,135.3,258.5,135.3z M258.5,298.1c-41.8,0-75.8-34-75.8-75.8
					s34-75.8,75.8-75.8s75.8,34,75.8,75.8S300.3,298.1,258.5,298.1z"/>
			</g>
		</g>
		<g>
			<g>
				<path class="st3" d="M176,282.1c-1.1-1.1-2.5-1.6-4-1.6c-1.5,0-2.9,0.6-4,1.6c-1.1,1.1-1.6,2.5-1.6,4c0,1.5,0.6,2.9,1.6,4
					c1.1,1.1,2.5,1.6,4,1.6c1.5,0,2.9-0.6,4-1.6c1.1-1.1,1.6-2.5,1.6-4C177.6,284.7,177,283.2,176,282.1z"/>
			</g>
		</g>
	</g>
</g>
<g id="Capa_7" class="st0">
	<g class="st2">
		<g>
			<path class="st3" d="M142.8,208.9c-1.1-1.1-2.5-1.7-4-1.7s-3,0.6-4,1.7c-1.1,1.1-1.7,2.5-1.7,4s0.6,3,1.7,4
				c1.1,1.1,2.5,1.7,4,1.7s3-0.6,4-1.7c1.1-1.1,1.7-2.5,1.7-4S143.9,210,142.8,208.9z"/>
		</g>
	</g>
	<g class="st2">
		<g>
			<path class="st3" d="M367.3,100H242.5c-3.4,0-6.2,2.8-6.2,6.2s2.8,6.2,6.2,6.2h124.9c3.4,0,6.2,2.8,6.2,6.2v279
				c0,3.4-2.8,6.2-6.2,6.2H142.7c-3.4,0-6.2-2.8-6.2-6.2V232.3c0-3.4-2.8-6.2-6.2-6.2s-6.2,2.8-6.2,6.2v165.2
				c0,10.2,8.3,18.5,18.5,18.5h224.7c10.2,0,18.5-8.3,18.5-18.5v-279C385.8,108.3,377.5,100,367.3,100z"/>
		</g>
	</g>
	<g class="st2">
		<g>
			<path class="st3" d="M254,134.8c-3.9,0-7.8,0.3-11.6,0.9c-3.1,0.5-5.3,3.4-4.8,6.5c0.5,3.1,3.4,5.2,6.5,4.8
				c3.2-0.5,6.6-0.7,9.9-0.7c35.5,0,64.4,28.9,64.4,64.4c0,15.8-5.7,30.3-15.2,41.5c-4.2-7.2-9.9-13.4-16.8-18.2
				c-4-2.8-8.4-5-12.9-6.7c5.2-5.1,8.4-12.2,8.4-20v-5.6c0-15.4-12.5-27.9-27.9-27.9s-27.9,12.5-27.9,27.9v5.6
				c0,7.8,3.2,14.9,8.4,20c-4.6,1.7-8.9,3.9-12.9,6.7c-7,4.8-12.7,11.1-16.9,18.3c-7.2-8.6-12.2-19.1-14.2-30.8
				c-0.5-3.1-3.5-5.2-6.6-4.7c-3.1,0.5-5.2,3.5-4.7,6.6c2.9,17.5,12,33.5,25.6,45.1c13.7,11.7,31.2,18.2,49.2,18.2
				c41.8,0,75.9-34,75.9-75.9S295.8,134.8,254,134.8z M237.5,201.7c0-9.1,7.4-16.5,16.5-16.5s16.5,7.4,16.5,16.5v5.6
				c0,9.1-7.4,16.5-16.5,16.5s-16.5-7.4-16.5-16.5V201.7z M254,275.1c-15.4,0-29.7-5.4-40.9-14.5c7.7-15.5,23.3-25.4,40.9-25.4
				c17.5,0,33.2,9.8,40.8,25.3C283.7,269.6,269.5,275.1,254,275.1z"/>
		</g>
	</g>
	<g class="st2">
		<g>
			<path class="st3" d="M306.7,339h-81c-3.1,0-5.7,2.6-5.7,5.7c0,3.1,2.6,5.7,5.7,5.7h81c3.1,0,5.7-2.6,5.7-5.7
				C312.4,341.5,309.8,339,306.7,339z"/>
		</g>
	</g>
	<g class="st2">
		<g>
			<path class="st3" d="M205.4,308.7c-1.1-1.1-2.5-1.7-4-1.7s-3,0.6-4,1.7c-1.1,1.1-1.7,2.5-1.7,4c0,1.5,0.6,3,1.7,4
				c1.1,1.1,2.5,1.7,4,1.7s3-0.6,4-1.7c1.1-1.1,1.7-2.5,1.7-4S206.4,309.8,205.4,308.7z"/>
		</g>
	</g>
	<g class="st2">
		<g>
			<path class="st3" d="M205.4,340.7c-1.1-1.1-2.5-1.7-4-1.7c-1.5,0-3,0.6-4,1.7c-1.1,1.1-1.7,2.5-1.7,4c0,1.5,0.6,3,1.7,4
				c1.1,1.1,2.5,1.7,4,1.7s3-0.6,4-1.7c1.1-1.1,1.7-2.5,1.7-4C207,343.2,206.4,341.7,205.4,340.7z"/>
		</g>
	</g>
	<g class="st2">
		<g>
			<path class="st3" d="M306.7,307h-81c-3.1,0-5.7,2.6-5.7,5.7c0,3.1,2.6,5.7,5.7,5.7h81c3.1,0,5.7-2.6,5.7-5.7
				C312.4,309.6,309.8,307,306.7,307z"/>
		</g>
	</g>
	<g class="st2">
		<g>
			<path class="st3" d="M200.2,144.9c-2.2-2.2-5.8-2.2-8.1,0l-18.6,18.6l-6.3-6.3c-2.2-2.2-5.8-2.2-8.1,0c-2.2,2.2-2.2,5.8,0,8.1
				l10.4,10.4c1.1,1.1,2.6,1.7,4,1.7c1.5,0,2.9-0.6,4-1.7l22.6-22.6C202.4,150.7,202.4,147.1,200.2,144.9z"/>
		</g>
	</g>
	<g class="st2">
		<g>
			<path class="st3" d="M179.9,112c-25.8,0-46.8,21-46.8,46.8s21,46.8,46.8,46.8s46.8-21,46.8-46.8S205.6,112,179.9,112z
				 M179.9,194.1c-19.5,0-35.4-15.9-35.4-35.4s15.9-35.4,35.4-35.4s35.4,15.9,35.4,35.4S199.4,194.1,179.9,194.1z"/>
		</g>
	</g>
</g>
<g id="Capa_8" class="st0">
	<g class="st2">
		<g>
			<path class="st3" d="M377.7,258.3c3.5,0,6.3-2.8,6.3-6.3V151.8c0-17.5-14.2-31.7-31.7-31.7h-42.9c-3.2-4-8.1-6.7-13.6-6.7h-10.3
				c-5-11.2-16.3-18.7-28.9-18.7h-1.1c-12.6,0-23.9,7.5-28.9,18.7h-10.3c-5.5,0-10.4,2.6-13.6,6.7h-42.9
				c-17.5,0-31.7,14.2-31.7,31.7v235.7c0,17.5,14.2,31.7,31.7,31.7h192.6c17.5,0,31.7-14.2,31.7-31.7v-82.4c0-3.5-2.8-6.3-6.3-6.3
				s-6.3,2.8-6.3,6.3v82.4c0,10.5-8.5,19-19,19H159.7c-10.5,0-19-8.5-19-19V151.8c0-10.5,8.5-19,19-19H199v12.7h-33
				c-7,0-12.7,5.7-12.7,12.7v223c0,7,5.7,12.7,12.7,12.7h180c7,0,12.7-5.7,12.7-12.7v-223c0-7-5.7-12.7-12.7-12.7h-33v-12.7h39.3
				c10.5,0,19,8.5,19,19V252C371.3,255.5,374.2,258.3,377.7,258.3z M211.6,130.7c0-2.5,2.1-4.6,4.6-4.6H231c2.9,0,5.4-1.9,6.1-4.7
				c2.2-8.3,9.8-14,18.3-14h1.1c8.6,0,16.1,5.8,18.3,14c0.7,2.8,3.3,4.7,6.1,4.7h14.7c2.5,0,4.6,2.1,4.6,4.6v14.7h-88.7V130.7z
				 M346,158.1l0,223c0,0,0,0,0,0H166v-223h39.3h101.4H346z"/>
		</g>
	</g>
	<g class="st2">
		<g>
			<path class="st3" d="M382.1,274.6c-1.2-1.2-2.8-1.9-4.5-1.9s-3.3,0.7-4.5,1.9c-1.2,1.2-1.9,2.8-1.9,4.5c0,1.7,0.7,3.3,1.9,4.5
				c1.2,1.2,2.8,1.9,4.5,1.9s3.3-0.7,4.5-1.9c1.2-1.2,1.9-2.8,1.9-4.5C384,277.4,383.3,275.8,382.1,274.6z"/>
		</g>
	</g>
	<g class="st2">
		<g>
			<path class="st3" d="M264.9,208.2c-1.2-1.2-2.8-1.9-4.5-1.9s-3.3,0.7-4.5,1.9c-1.2,1.2-1.9,2.8-1.9,4.5c0,1.7,0.7,3.3,1.9,4.5
				c1.2,1.2,2.8,1.9,4.5,1.9s3.3-0.7,4.5-1.9c1.2-1.2,1.9-2.8,1.9-4.5C266.8,211,266.1,209.3,264.9,208.2z"/>
		</g>
	</g>
	<g class="st2">
		<g>
			<path class="st3" d="M326,206.3h-37.7c-3.5,0-6.3,2.8-6.3,6.3c0,3.5,2.8,6.3,6.3,6.3H326c3.5,0,6.3-2.8,6.3-6.3
				C332.3,209.1,329.5,206.3,326,206.3z"/>
		</g>
	</g>
	<g class="st2">
		<g>
			<path class="st3" d="M326,274.7h-65.6c-3.5,0-6.3,2.8-6.3,6.3c0,3.5,2.8,6.3,6.3,6.3H326c3.5,0,6.3-2.8,6.3-6.3
				C332.3,277.6,329.5,274.7,326,274.7z"/>
		</g>
	</g>
	<g class="st2">
		<g>
			<path class="st3" d="M326,343.2h-65.6c-3.5,0-6.3,2.8-6.3,6.3s2.8,6.3,6.3,6.3H326c3.5,0,6.3-2.8,6.3-6.3S329.5,343.2,326,343.2z
				"/>
		</g>
	</g>
	<g class="st2">
		<g>
			<path class="st3" d="M220.5,206.3h-24.1v-24.1c0-3.5-2.8-6.3-6.3-6.3c-3.5,0-6.3,2.8-6.3,6.3v30.4c0,3.5,2.8,6.3,6.3,6.3h30.4
				c3.5,0,6.3-2.8,6.3-6.3C226.9,209.1,224,206.3,220.5,206.3z"/>
		</g>
	</g>
	<g class="st2">
		<g>
			<path class="st3" d="M233.8,175.7c-2.5-2.5-6.5-2.5-9,0l-8.7,8.7l-0.7-0.7c-2.5-2.5-6.5-2.5-9,0c-2.5,2.5-2.5,6.5,0,9l5.2,5.2
				c1.2,1.2,2.9,1.9,4.5,1.9c1.6,0,3.2-0.6,4.5-1.9l13.2-13.2C236.3,182.2,236.3,178.2,233.8,175.7z"/>
		</g>
	</g>
	<g class="st2">
		<g>
			<path class="st3" d="M220.5,274.6h-24.1v-24.1c0-3.5-2.8-6.3-6.3-6.3c-3.5,0-6.3,2.8-6.3,6.3v30.4c0,3.5,2.8,6.3,6.3,6.3h30.4
				c3.5,0,6.3-2.8,6.3-6.3C226.9,277.4,224,274.6,220.5,274.6z"/>
		</g>
	</g>
	<g class="st2">
		<g>
			<path class="st3" d="M233.8,244c-2.5-2.5-6.5-2.5-9,0l-8.7,8.7l-0.7-0.7c-2.5-2.5-6.5-2.5-9,0c-2.5,2.5-2.5,6.5,0,9l5.2,5.2
				c1.2,1.2,2.9,1.9,4.5,1.9c1.6,0,3.2-0.6,4.5-1.9l13.2-13.2C236.3,250.4,236.3,246.4,233.8,244z"/>
		</g>
	</g>
	<g class="st2">
		<g>
			<path class="st3" d="M220.5,343.2h-24.1v-24.1c0-3.5-2.8-6.3-6.3-6.3c-3.5,0-6.3,2.8-6.3,6.3v30.4c0,3.5,2.8,6.3,6.3,6.3h30.4
				c3.5,0,6.3-2.8,6.3-6.3S224,343.2,220.5,343.2z"/>
		</g>
	</g>
	<g class="st2">
		<g>
			<path class="st3" d="M233.8,312.6c-2.5-2.5-6.5-2.5-9,0l-8.7,8.7l-0.7-0.7c-2.5-2.5-6.5-2.5-9,0c-2.5,2.5-2.5,6.5,0,9l5.2,5.2
				c1.2,1.2,2.9,1.9,4.5,1.9c1.6,0,3.2-0.6,4.5-1.9l13.2-13.2C236.3,319.1,236.3,315.1,233.8,312.6z"/>
		</g>
	</g>
</g>
<g id="Capa_9" class="st0">
	<g class="st2">
		<g>
			<g>
				<path class="st3" d="M379.3,166.4c3.2,0,5.7-2.6,5.7-5.7v-30.4c0-9.5-7.7-17.2-17.2-17.2H139.2c-9.5,0-17.2,7.7-17.2,17.2v259.5
					c0,9.5,7.7,17.2,17.2,17.2h228.5c9.5,0,17.2-7.7,17.2-17.2v-16.1c0-3.2-2.6-5.7-5.7-5.7s-5.7,2.6-5.7,5.7v16.1
					c0,3.2-2.6,5.7-5.7,5.7H139.2c-3.2,0-5.7-2.6-5.7-5.7V130.2c0-3.2,2.6-5.7,5.7-5.7h228.5c3.2,0,5.7,2.6,5.7,5.7v30.4
					C373.5,163.8,376.1,166.4,379.3,166.4z"/>
			</g>
		</g>
		<g>
			<g>
				<path class="st3" d="M351.7,140.6H155.3c-3.2,0-5.7,2.6-5.7,5.7v120c0,3.2,2.6,5.7,5.7,5.7c3.2,0,5.7-2.6,5.7-5.7V152H346v9.2
					c0,3.2,2.6,5.7,5.7,5.7c3.2,0,5.7-2.6,5.7-5.7v-14.9C357.4,143.1,354.9,140.6,351.7,140.6z"/>
			</g>
		</g>
		<g>
			<g>
				<path class="st3" d="M159.4,283.5c-1.1-1.1-2.5-1.7-4.1-1.7c-1.5,0-3,0.6-4.1,1.7c-1.1,1.1-1.7,2.5-1.7,4.1s0.6,3,1.7,4.1
					c1.1,1.1,2.5,1.7,4.1,1.7c1.5,0,3-0.6,4.1-1.7c1.1-1.1,1.7-2.5,1.7-4.1S160.4,284.6,159.4,283.5z"/>
			</g>
		</g>
		<g>
			<g>
				<path class="st3" d="M351.7,355.3c-3.2,0-5.7,2.6-5.7,5.7v6.9H161v-58.3c0-3.2-2.6-5.7-5.7-5.7c-3.2,0-5.7,2.6-5.7,5.7v64
					c0,3.2,2.6,5.7,5.7,5.7h196.4c3.2,0,5.7-2.6,5.7-5.7v-12.6C357.4,357.9,354.9,355.3,351.7,355.3z"/>
			</g>
		</g>
		<g>
			<g>
				<path class="st3" d="M300,315.9c-2.2-2.2-5.9-2.2-8.1,0l-11.3,11.3l-7.1-7.1c-4.5-4.5-11.7-4.5-16.2,0l-4.6,4.6
					c-2.2,2.2-2.2,5.9,0,8.1c2.2,2.2,5.9,2.2,8.1,0l4.5-4.5l7.1,7.1c2.2,2.2,5.2,3.3,8.1,3.3c2.9,0,5.9-1.1,8.1-3.3L300,324
					C302.2,321.8,302.2,318.1,300,315.9z"/>
			</g>
		</g>
		<g>
			<g>
				<path class="st3" d="M413.4,233.5c2.5-3.9,3.3-8.8,2.1-13.3c-1.2-4.5-4.3-8.4-8.5-10.5c-1.8-0.9-2.9-2.8-2.8-4.9
					c0.2-4.7-1.6-9.3-4.9-12.6c-3.3-3.3-7.9-5.1-12.6-4.9c-2,0.1-3.9-1-4.9-2.8c-2.2-4.2-6-7.3-10.5-8.5c-4.5-1.2-9.4-0.5-13.3,2.1
					c-1.7,1.1-3.9,1.1-5.6,0c-3.9-2.5-8.8-3.3-13.3-2.1c-4.5,1.2-8.4,4.3-10.5,8.5c-0.9,1.8-2.9,2.9-4.9,2.8
					c-4.7-0.2-9.3,1.6-12.6,4.9c-3.3,3.3-5.1,7.9-4.9,12.6c0.1,2-1,3.9-2.8,4.9c-4.2,2.2-7.3,6-8.5,10.5c-0.6,2.2-0.7,4.4-0.4,6.6
					H194.2c-3.2,0-5.7,2.6-5.7,5.7s2.6,5.7,5.7,5.7h103.1c-0.1,0.3-0.3,0.6-0.5,0.9c-2.5,3.9-3.3,8.8-2.1,13.3
					c0.2,0.6,0.4,1.2,0.6,1.8H194.2c-3.2,0-5.7,2.6-5.7,5.7s2.6,5.7,5.7,5.7h111.6c0.2,0.7,0.4,1.4,0.3,2.1
					c-0.2,4.7,1.6,9.3,4.9,12.6c3.3,3.3,7.9,5.1,12.6,4.9c2-0.1,3.9,1,4.9,2.8c0.7,1.3,1.6,2.6,2.6,3.6v53.6c0,2.3,1.4,4.4,3.5,5.3
					c2.1,0.9,4.6,0.4,6.3-1.2l14.3-14.3l14.3,14.3c1.1,1.1,2.6,1.7,4.1,1.7c0.7,0,1.5-0.1,2.2-0.4c2.1-0.9,3.5-3,3.5-5.3v-53.6
					c1-1.1,1.9-2.3,2.6-3.6c0.9-1.8,2.9-2.9,4.9-2.8c4.7,0.2,9.3-1.6,12.6-4.9c3.3-3.3,5.1-7.9,4.9-12.6c-0.1-2,1-3.9,2.8-4.9
					c4.2-2.2,7.3-6,8.5-10.5c1.2-4.5,0.5-9.4-2.1-13.3C412.3,237.4,412.3,235.2,413.4,233.5z M367.8,331.6l-8.6-8.5
					c-2.2-2.2-5.9-2.2-8.1,0l-8.6,8.5v-34.4c3.4,0.2,6.9-0.7,9.8-2.6c1.7-1.1,3.9-1.1,5.6,0c2.7,1.7,5.9,2.6,9,2.6
					c0.3,0,0.5,0,0.8,0V331.6L367.8,331.6z M404.3,249.5c-0.4,1.4-1.3,2.6-2.6,3.3c-5.8,3-9.3,9.1-9,15.6c0.1,1.5-0.5,2.9-1.5,3.9
					c-1.1,1.1-2.4,1.6-3.9,1.5c-6.5-0.3-12.6,3.2-15.6,9c-0.7,1.3-1.9,2.3-3.3,2.6c-1.4,0.4-2.9,0.2-4.2-0.6c-2.7-1.8-5.9-2.6-9-2.6
					c-3.1,0-6.3,0.9-9,2.6c-1.3,0.8-2.7,1-4.2,0.6c-1.4-0.4-2.6-1.3-3.3-2.6c-3-5.8-9.1-9.3-15.6-9c-1.5,0.1-2.9-0.5-3.9-1.5
					c-1.1-1.1-1.6-2.4-1.5-3.9c0.2-4.6-1.5-9-4.5-12.2c-0.1-0.1-0.2-0.2-0.3-0.3c-1.2-1.2-2.6-2.3-4.2-3.1c-1.3-0.7-2.3-1.8-2.6-3.3
					c-0.4-1.4-0.2-2.9,0.6-4.2c3.5-5.5,3.5-12.6,0-18c-0.8-1.3-1-2.7-0.6-4.2c0.4-1.4,1.3-2.6,2.6-3.3c5.8-3,9.3-9.1,9-15.6
					c-0.1-1.5,0.5-2.9,1.5-3.9c1.1-1.1,2.5-1.6,3.9-1.5c6.5,0.3,12.6-3.2,15.6-9c0.7-1.3,1.9-2.3,3.3-2.6c1.4-0.4,2.9-0.2,4.2,0.6
					c5.5,3.5,12.6,3.5,18,0c1.3-0.8,2.7-1,4.2-0.6c1.4,0.4,2.6,1.3,3.3,2.6c3,5.8,9.1,9.3,15.6,9c1.5-0.1,2.9,0.5,3.9,1.5
					c1.1,1.1,1.6,2.4,1.5,3.9c-0.3,6.5,3.2,12.6,9,15.6c1.3,0.7,2.3,1.8,2.6,3.3c0.4,1.4,0.2,2.9-0.6,4.2c-3.5,5.5-3.5,12.6,0,18
					C404.5,246.5,404.7,248,404.3,249.5z"/>
			</g>
		</g>
		<g>
			<g>
				<path class="st3" d="M382.4,220.7c-2.2-2.2-5.9-2.2-8.1,0l-19.1,19.1l-7.6-7.6c-2.2-2.2-5.9-2.2-8.1,0c-2.2,2.2-2.2,5.9,0,8.1
					l11.6,11.6c1.1,1.1,2.6,1.7,4.1,1.7c1.5,0,2.9-0.6,4.1-1.7l23.1-23.1C384.7,226.5,384.7,222.9,382.4,220.7z"/>
			</g>
		</g>
		<g>
			<g>
				<path class="st3" d="M192.1,182.4c-1.1-1.1-2.5-1.7-4.1-1.7s-3,0.6-4.1,1.7c-1.1,1.1-1.7,2.5-1.7,4.1s0.6,3,1.7,4.1
					c1.1,1.1,2.5,1.7,4.1,1.7s3-0.6,4.1-1.7c1.1-1.1,1.7-2.5,1.7-4.1S193.2,183.5,192.1,182.4z"/>
			</g>
		</g>
		<g>
			<g>
				<path class="st3" d="M237.4,180.8h-27.9c-3.2,0-5.7,2.6-5.7,5.7s2.6,5.7,5.7,5.7h27.9c3.2,0,5.7-2.6,5.7-5.7
					S240.6,180.8,237.4,180.8z"/>
			</g>
		</g>
		<g>
			<g>
				<path class="st3" d="M295.9,281.8h-65.6c-3.2,0-5.7,2.6-5.7,5.7s2.6,5.7,5.7,5.7h65.6c3.2,0,5.7-2.6,5.7-5.7
					S299.1,281.8,295.9,281.8z"/>
			</g>
		</g>
	</g>
</g>
<g id="guias">
</g>
</svg>
